<?xml version="1.0" encoding="utf-8"?>
<!-- Generator: Adobe Illustrator 20.0.0, SVG Export Plug-In . SVG Version: 6.00 Build 0)  -->
<svg version="1.1" id="Layer_1" xmlns="http://www.w3.org/2000/svg" xmlns:xlink="http://www.w3.org/1999/xlink" x="0px" y="0px"
	 viewBox="0 0 97.3 90" style="enable-background:new 0 0 97.3 90;" xml:space="preserve">
<style type="text/css">
	.st0{fill:#CBD410;}
	.st1{fill:#FFFFFF;}
	.st2{font-family:'Muli-Black';}
	.st3{font-size:15.33px;}
</style>
<title>Claim ExpensesRGB</title>
<circle class="st0" cx="62.8" cy="30.9" r="12.2"/>
<path d="M33,45.1c2-0.2,4-0.2,6-0.1c3.9,0.2,7.7,1.2,11.2,3c1.7,0.9,3.2,1.9,4.6,3.2c0.1,0.1,0.3,0.1,0.4,0.2H65
	c2,0,3.8,1.4,4.2,3.4c0.1,0.5,0.1,0.9,0.1,1.4l0.7-0.2c3.8-1.3,7.7-2.7,11.5-4c1.2-0.5,2.5-0.5,3.7,0c1.5,0.6,2.3,2.3,1.7,3.9
	c-0.1,0.2-0.2,0.4-0.3,0.6c-0.6,0.8-1.4,1.5-2.3,2c-1.9,1.1-3.8,2.1-5.7,3.1l-9.1,4.9c-1.6,0.9-3.2,1.8-4.9,2.6
	c-1.6,0.8-3.3,1.3-5,1.7c-1.5,0.3-3.1,0.5-4.6,0.4c-1.1-0.1-2.3-0.3-3.3-0.7c-4.4-1.4-8.9-2.8-13.3-4.2c-1.8-0.6-3.5-1.2-5.2-1.8
	L33,64.1c0,0.4,0,0.8,0,1.2c0,0.3,0,0.6-0.1,0.9c-0.3,1.1-1.3,1.8-2.4,1.8c-2.2,0-4.4,0-6.7,0c-0.4,0-0.7-0.2-0.9-0.5
	c-0.6-1-1.2-2-1.7-3.1c-1.5-3-2.5-6.1-3-9.4c-0.5-2.7-0.5-5.5-0.2-8.3c0.1-1.2,0.4-2.3,0.6-3.4c0.1-0.4,0.5-0.8,0.9-0.7h11
	c1.3,0,2.3,1,2.4,2.3C33,44.9,33,45,33,45.1z M33,46.8c0,0.1,0,0.2,0,0.2c0,5,0,10,0,15c0,0.1,0.1,0.3,0.2,0.3c0,0,0,0,0,0l1.9,0.6
	c5.7,1.9,11.3,3.8,17,5.5c1,0.3,2,0.5,3,0.7c1.4,0.1,2.7,0.1,4.1-0.2c1.7-0.3,3.3-0.9,4.9-1.6c1.7-0.8,3.3-1.8,5-2.7
	c4.7-2.5,9.3-5,14-7.5c0.8-0.4,1.5-1,2-1.7c0.5-0.5,0.5-1.3,0-1.8c-0.2-0.2-0.4-0.3-0.6-0.3c-0.5-0.1-0.9-0.2-1.4-0.1
	c-0.9,0.2-1.7,0.4-2.5,0.7c-3.9,1.3-7.9,2.7-11.8,4.1c-0.1,0-0.2,0.1-0.3,0.2c-0.8,1.1-2.1,1.7-3.5,1.7H49.5c-0.1,0-0.3,0-0.4,0
	c-0.5-0.1-0.7-0.6-0.6-1c0.1-0.3,0.3-0.5,0.6-0.6c0.1,0,0.3,0,0.4,0H65c1.4,0,2.6-1.2,2.6-2.6c0-1.4-1.2-2.6-2.7-2.6H54.8
	c-0.3,0-0.7-0.1-0.9-0.4c-2.4-2.3-5.3-3.9-8.5-4.8c-3.6-1-7.3-1.4-11-1.2C33.9,46.8,33.5,46.8,33,46.8z M26.5,44.3h-0.2h-5.9
	c-0.2,0-0.2,0.1-0.3,0.2c-0.3,1.6-0.5,3.3-0.6,5c0,2.8,0.3,5.7,1.1,8.4c0.8,2.8,1.9,5.5,3.4,8c0.1,0.2,0.3,0.3,0.5,0.3
	c0.6,0,1.1,0,1.7,0h0.3L26.5,44.3z M28.3,44.3v0.4c0,4.4,0,8.7,0,13.1c0,2.7,0,5.5,0,8.2c0,0.2,0.1,0.3,0.3,0.3c0.6,0,1.2,0,1.8,0
	s0.9-0.3,0.9-0.9c0-6.7,0-13.3,0-20c0-0.1,0-0.2,0-0.3c0-0.4-0.3-0.7-0.6-0.7C29.9,44.3,29.1,44.3,28.3,44.3L28.3,44.3z"/>
<path d="M62.6,17.8c7.1,0,12.9,5.8,12.9,12.9s-5.8,12.9-12.9,12.9s-12.9-5.8-12.9-12.9c0,0,0,0,0,0C49.8,23.6,55.5,17.9,62.6,17.8z
	 M51.4,30.8c0,6.2,5,11.2,11.2,11.2s11.2-5,11.2-11.2c0-6.2-5-11.2-11.2-11.2c0,0,0,0,0,0C56.4,19.6,51.4,24.6,51.4,30.8z"/>
<path class="st1" d="M33,46.8c0.5,0,0.9-0.1,1.4-0.1c3.7-0.2,7.4,0.2,11,1.2c3.2,0.9,6.1,2.5,8.5,4.8c0.2,0.2,0.6,0.4,0.9,0.4h10.1
	c1.4,0,2.6,1.1,2.7,2.6c0,1.4-1.1,2.6-2.6,2.6H49.5c-0.1,0-0.3,0-0.4,0c-0.5,0.1-0.7,0.6-0.6,1c0.1,0.3,0.3,0.5,0.6,0.6
	c0.1,0,0.3,0,0.4,0h15.3c1.4,0,2.7-0.6,3.5-1.6c0.1-0.1,0.2-0.2,0.3-0.2c3.9-1.4,7.9-2.7,11.8-4.1c0.8-0.3,1.7-0.5,2.5-0.7
	c0.5-0.1,1-0.1,1.4,0.1c0.7,0.1,1.1,0.8,1,1.5c0,0.2-0.2,0.4-0.3,0.6c-0.5,0.7-1.2,1.3-2,1.7c-4.7,2.5-9.3,5-14,7.5
	c-1.7,0.9-3.3,1.8-5,2.7c-1.6,0.8-3.2,1.3-4.9,1.6c-1.3,0.3-2.7,0.4-4.1,0.2c-1-0.1-2-0.4-3-0.7c-5.7-1.7-11.4-3.6-17-5.5l-1.9-0.6
	c-0.1,0-0.3-0.2-0.2-0.3c0,0,0,0,0,0c0-5,0-10,0-15C33,47,33,47,33,46.8z"/>
<path class="st0" d="M26.6,44.3v22h-0.3c-0.6,0-1.1,0-1.7,0c-0.2,0-0.4-0.1-0.5-0.3c-1.5-2.5-2.6-5.2-3.4-8
	c-0.8-2.7-1.1-5.6-1.1-8.4c0-1.7,0.2-3.4,0.6-5c0-0.2,0.1-0.2,0.3-0.2h6L26.6,44.3z"/>
<path class="st1" d="M28.3,44.3c0.8,0,1.6,0,2.4,0c0.4,0,0.6,0.4,0.6,0.7c0,0.1,0,0.2,0,0.3c0,6.7,0,13.3,0,20
	c0,0.7-0.2,0.9-0.9,0.9s-1.2,0-1.8,0c-0.2,0-0.3-0.1-0.3-0.3c0-2.7,0-5.5,0-8.2c0-4.4,0-8.7,0-13.1L28.3,44.3z"/>
<text transform="matrix(1 0 0 1 57.53 35.98)" class="st1 st2 st3">£</text>
</svg>
