<?xml version="1.0" encoding="utf-8"?>
<!-- Generator: Adobe Illustrator 20.0.0, SVG Export Plug-In . SVG Version: 6.00 Build 0)  -->
<svg version="1.1" id="Layer_1" xmlns="http://www.w3.org/2000/svg" xmlns:xlink="http://www.w3.org/1999/xlink" x="0px" y="0px"
	 viewBox="0 0 28.3 28.3" style="enable-background:new 0 0 28.3 28.3;" xml:space="preserve">
<style type="text/css">
	.st0{fill:#5C2581;}
</style>
<g>
	
		<rect x="11.7" y="-3.4" transform="matrix(0.7071 0.7071 -0.7071 0.7071 14.1479 -5.8719)" class="st0" width="4.9" height="35.1"/>
	
		<rect x="11.7" y="-3.4" transform="matrix(-0.7071 0.7071 -0.7071 -0.7071 34.176 14.1281)" class="st0" width="4.9" height="35.1"/>
</g>
</svg>
