<?xml version="1.0" encoding="utf-8"?>
<!-- Generator: Adobe Illustrator 20.0.0, SVG Export Plug-In . SVG Version: 6.00 Build 0)  -->
<svg version="1.1" id="Layer_1" xmlns="http://www.w3.org/2000/svg" xmlns:xlink="http://www.w3.org/1999/xlink" x="0px" y="0px"
	 viewBox="0 0 97.3 90" style="enable-background:new 0 0 97.3 90;" xml:space="preserve">
<style type="text/css">
	.st0{fill:#FFFFFF;}
	.st1{clip-path:url(#SVGID_2_);}
	.st2{fill:#CBD50F;}
	.st3{clip-path:url(#SVGID_4_);}
</style>
<title>Dedicated_TeamRGB</title>
<g id="Layer_1_1_">
	<path d="M80,40.9c-3.1,0.8-6.2,1.5-9.4,2.3c-1,0.3-1.6,0.2-2.1-0.8c-0.6-1.1-1.4-2.1-2.3-3v38H30.6v-38l-0.2-0.1
		c-0.6,0.9-1.3,1.8-1.9,2.8c-0.3,0.9-1.3,1.3-2.2,1c-0.1,0-0.1,0-0.2-0.1c-3-0.9-6.1-1.5-9.2-2.3v-0.8c0.2-0.3,0.4-0.7,0.5-1
		c1.2-3.2,2.5-6.4,3.7-9.6c1.2-3,3.3-5.6,6-7.4c2.1-1.4,4.3-2.7,6.5-4c1.2-0.7,2.5-1.2,3.7-1.9h22.3c2.4,1.3,4.8,2.5,7.2,3.8
		c4.6,2.4,8.1,6.4,9.9,11.2c0.8,2.3,1.7,4.6,2.6,6.9c0.2,0.7,0.5,1.3,0.8,2V40.9z M39,17.9c1.2,4.8,5.3,7.5,10.6,7.2
		c3.8-0.3,7.8-3.7,8.1-7.2H39z"/>
	<path class="st0" d="M39,17.9h18.8c-0.4,3.5-4.3,6.9-8.1,7.2C44.3,25.4,40.2,22.6,39,17.9z"/>
</g>
<g>
	<path class="st0" d="M64.6,34.2l0.3-0.1c1.5,2.3,3,4.5,4.6,6.8c0.2,0.3,0.8,0.7,1.1,0.7c2.4-0.5,4.8-1.2,7.4-1.8
		c-1.9-4.9-3-10-6.6-13.9c-3.2-3.5-7.4-5.6-11.8-7.6c-2,5.3-5.5,8.5-11.3,8.5s-9.1-3.4-11.2-8.7c-2.8,1.7-5.6,3.2-8.2,4.8
		c-3,1.8-5.3,4.6-6.6,7.9c-1.1,2.7-2.1,5.4-3.1,8.1c-0.1,0.3-0.1,0.6-0.2,0.9c1.4,0.3,2.8,0.7,4.1,1s2.6,1,3.6,0.7s1.5-1.9,2.2-2.9
		c1-1.5,2-3,3-4.5l0.3,0.1v41.6h32.4V34.2z"/>
	<g>
		<g id="Isolation_Mode">
			<defs>
				<rect id="SVGID_1_" x="33" y="33.1" width="30.9" height="29.1"/>
			</defs>
			<clipPath id="SVGID_2_">
				<use xlink:href="#SVGID_1_"  style="overflow:visible;"/>
			</clipPath>
			<g id="Artwork_139" class="st1">
				
					<rect x="34" y="52.5" transform="matrix(0.7071 -0.7071 0.7071 0.7071 -28.2335 41.9955)" class="st2" width="5.1" height="5.1"/>
				
					<rect x="39.1" y="37.4" transform="matrix(0.7071 -0.7071 0.7071 0.7071 -19.251 48.8481)" class="st2" width="20.6" height="20.6"/>
				<g>
					<defs>
						<rect id="SVGID_3_" x="33" y="33.1" width="30.9" height="29.1"/>
					</defs>
					<clipPath id="SVGID_4_">
						<use xlink:href="#SVGID_3_"  style="overflow:visible;"/>
					</clipPath>
					<g class="st3">
						<path class="st0" d="M42.2,44.9c-0.1-0.1-0.1-0.2-0.1-0.3c0-0.1,0-0.2,0.1-0.3c0.1-0.1,0.2-0.1,0.3-0.1c0.1,0,0.2,0,0.3,0.1
							c0.1,0.1,0.1,0.4,0,0.5c0,0,0,0,0,0C42.6,45,42.4,45,42.2,44.9 M42.7,45.5h-0.5v2.8h0.5V45.5z"/>
						<rect x="43.2" y="46.3" class="st0" width="0.7" height="0.5"/>
						<path class="st0" d="M46.9,45.9c0.5,0.6,0.5,1.4,0,2c-0.3,0.3-0.6,0.4-1,0.4c-0.4,0-0.8-0.2-1-0.5v1.7h-0.5v-4h0.5V46
							c0.2-0.3,0.6-0.5,1-0.5C46.3,45.5,46.7,45.6,46.9,45.9 M44.9,46.9c0,0.3,0.1,0.5,0.3,0.7c0.2,0.2,0.4,0.3,0.7,0.3
							c0.2,0,0.5-0.1,0.7-0.3c0.3-0.4,0.3-1,0-1.4c-0.2-0.2-0.4-0.3-0.7-0.3c-0.3,0-0.5,0.1-0.7,0.3C45,46.4,44.9,46.7,44.9,46.9"/>
						<path class="st0" d="M48,47.9c-0.5-0.6-0.5-1.4,0-2c0.3-0.3,0.6-0.4,1-0.4c0.4,0,0.8,0.2,1,0.5v-0.4h0.5v2.8H50v-0.4
							c-0.2,0.3-0.6,0.5-1,0.5C48.6,48.4,48.3,48.2,48,47.9 M50,47c0-0.3-0.1-0.5-0.3-0.7c-0.2-0.2-0.4-0.3-0.7-0.3
							c-0.2,0-0.5,0.1-0.7,0.3c-0.3,0.4-0.3,1,0,1.4c0.2,0.2,0.4,0.3,0.7,0.3c0.3,0,0.5-0.1,0.7-0.3C49.9,47.5,50,47.2,50,47"/>
						<polygon class="st0" points="52.3,47.6 53.1,45.5 53.7,45.5 52,49.5 51.5,49.5 52,48.2 50.8,45.5 51.4,45.5 						"/>
						<path class="st0" d="M56.2,47.5l0.3,0.3c-0.3,0.3-0.7,0.5-1.2,0.5c-0.4,0-0.8-0.1-1.1-0.4c-0.3-0.3-0.4-0.6-0.4-1
							c0-0.4,0.2-0.7,0.4-1c0.3-0.3,0.7-0.4,1.1-0.4c0.4,0,0.7,0.1,1,0.4c0.3,0.3,0.4,0.7,0.4,1.1h-2.4c0,0.3,0.1,0.5,0.3,0.7
							c0.2,0.2,0.5,0.3,0.8,0.3C55.6,47.9,55.9,47.8,56.2,47.5 M55.2,46c-0.4,0-0.8,0.2-0.9,0.6H56C55.9,46.2,55.6,45.9,55.2,46"/>
						<path class="st0" d="M42.9,50.8c0-0.2,0-0.3-0.2-0.3c-0.1,0-0.2,0-0.3,0.1l-0.1-0.1c0.1-0.1,0.3-0.1,0.5-0.2
							c0.3,0,0.4,0.2,0.4,0.5v0.7H43v-0.1l0,0c-0.1,0.1-0.2,0.2-0.4,0.2c-0.2,0-0.3-0.1-0.3-0.3c0,0,0,0,0,0
							C42.3,50.9,42.5,50.8,42.9,50.8 M42.7,51.3c0.1,0,0.2-0.1,0.3-0.2v-0.3c-0.4,0-0.5,0.1-0.5,0.3C42.5,51.3,42.5,51.3,42.7,51.3
							C42.6,51.4,42.7,51.4,42.7,51.3"/>
						<path class="st0" d="M44.2,50.3c0.1,0,0.2,0.1,0.3,0.1l-0.1,0.1c-0.1-0.1-0.1-0.1-0.2-0.1c-0.2,0-0.4,0.2-0.4,0.4
							s0.1,0.4,0.3,0.4c0.1,0,0.2,0,0.3-0.1l0.1,0.1c-0.1,0.1-0.2,0.1-0.4,0.2c-0.3,0-0.5-0.2-0.5-0.5c0,0,0,0,0-0.1
							C43.6,50.6,43.8,50.4,44.2,50.3C44.1,50.3,44.1,50.3,44.2,50.3"/>
						<path class="st0" d="M45.4,50.3c0.1,0,0.2,0.1,0.3,0.1l-0.1,0.1c-0.1-0.1-0.1-0.1-0.2-0.1c-0.2,0-0.4,0.2-0.4,0.4
							s0.1,0.4,0.3,0.4c0.1,0,0.2,0,0.3-0.1l0.1,0.1c-0.1,0.1-0.2,0.1-0.4,0.2c-0.3,0-0.5-0.2-0.5-0.5c0,0,0,0,0-0.1
							C44.8,50.6,45,50.4,45.4,50.3C45.3,50.3,45.4,50.3,45.4,50.3"/>
						<path class="st0" d="M46.6,50.3c0.3,0,0.6,0.2,0.7,0.5c0,0.3-0.2,0.6-0.5,0.7c-0.3,0-0.6-0.2-0.7-0.5c0,0,0,0,0-0.1
							C46,50.6,46.2,50.4,46.6,50.3C46.6,50.3,46.6,50.3,46.6,50.3 M46.6,51.3c0.2,0,0.3-0.2,0.3-0.4s-0.1-0.4-0.3-0.4
							s-0.3,0.2-0.3,0.4S46.4,51.3,46.6,51.3"/>
						<path class="st0" d="M47.6,50.3h0.2V51c0,0.2,0.1,0.3,0.2,0.3s0.2-0.1,0.3-0.2v-0.8h0.2v1.1h-0.2v-0.2l0,0
							c-0.1,0.1-0.2,0.2-0.4,0.2c-0.2,0-0.3-0.2-0.3-0.5L47.6,50.3z"/>
						<path class="st0" d="M49.1,50.3h0.2v0.2l0,0c0.1-0.1,0.2-0.2,0.4-0.2c0.2,0,0.3,0.2,0.3,0.5v0.7h-0.2v-0.7
							c0-0.2-0.1-0.3-0.2-0.3s-0.2,0.1-0.3,0.2v0.8h-0.2L49.1,50.3z"/>
						<path class="st0" d="M50.6,50.5h-0.2v-0.2h0.2V50h0.2v0.3h0.3v0.2h-0.3v0.6c0,0.1,0,0.2,0.2,0.2h0.1v0.2c-0.1,0-0.1,0-0.2,0
							c-0.2,0-0.3-0.2-0.3-0.4L50.6,50.5z"/>
						<path class="st0" d="M52.2,50.8c0-0.2,0-0.3-0.2-0.3c-0.1,0-0.2,0-0.3,0.1l-0.1-0.1c0.1-0.1,0.3-0.1,0.5-0.2
							c0.3,0,0.4,0.2,0.4,0.5v0.7h-0.2v-0.1l0,0c-0.1,0.1-0.2,0.2-0.4,0.2c-0.2,0-0.3-0.1-0.3-0.3c0,0,0,0,0,0
							C51.5,50.9,51.7,50.8,52.2,50.8 M51.9,51.3c0.1,0,0.2-0.1,0.3-0.2v-0.3c-0.4,0-0.5,0.1-0.5,0.3C51.7,51.3,51.8,51.3,51.9,51.3
							C51.9,51.4,51.9,51.4,51.9,51.3"/>
						<path class="st0" d="M53,50.3h0.2v0.2l0,0c0.1-0.1,0.2-0.2,0.4-0.2c0.2,0,0.3,0.2,0.3,0.5v0.7h-0.2v-0.7
							c0-0.2-0.1-0.3-0.2-0.3s-0.2,0.1-0.3,0.2v0.8H53V50.3z"/>
						<path class="st0" d="M54.9,50.3c0.1,0,0.2,0.1,0.3,0.1l-0.1,0.1c-0.1-0.1-0.1-0.1-0.2-0.1c-0.2,0-0.4,0.2-0.4,0.4
							s0.1,0.4,0.3,0.4c0.1,0,0.2,0,0.3-0.1l0.1,0.1c-0.1,0.1-0.2,0.1-0.4,0.2c-0.3,0-0.5-0.2-0.5-0.5c0,0,0,0,0-0.1
							C54.3,50.6,54.6,50.4,54.9,50.3C54.9,50.3,54.9,50.3,54.9,50.3"/>
						<path class="st0" d="M55.8,51.8c0.1,0,0.2-0.1,0.3-0.2v-0.1l-0.5-1.1h0.2L56,51l0.1,0.3l0,0l0.1-0.3l0.2-0.6h0.2l-0.4,1.2
							C56.1,51.8,56,52,55.7,52h-0.1v-0.2L55.8,51.8"/>
					</g>
				</g>
			</g>
		</g>
	</g>
</g>
</svg>
