<?xml version="1.0" encoding="utf-8"?>
<!-- Generator: Adobe Illustrator 20.0.0, SVG Export Plug-In . SVG Version: 6.00 Build 0)  -->
<svg version="1.1" id="Layer_1" xmlns="http://www.w3.org/2000/svg" xmlns:xlink="http://www.w3.org/1999/xlink" x="0px" y="0px"
	 viewBox="0 0 427.5 427.5" style="enable-background:new 0 0 427.5 427.5;" xml:space="preserve">
<style type="text/css">
	.st0{fill:#FFFFFF;}
	.st1{fill:none;stroke:#FFFFFF;stroke-width:7;stroke-miterlimit:10;}
</style>
<title>Asset 1</title>
<g id="Layer_2">
	<g id="Isolation_Mode">
		<path class="st0" d="M200.6,375.4c1.5-4.7,2.7-8.9,4.2-13c0.5-1,0.1-2.2-0.9-2.7c0,0,0,0-0.1,0c-3-2.1-6-4.3-9-6.5
			c-0.5-0.3-1.1-0.5-1.3-1.4c4.4,0,8.7-0.1,13,0c1.1,0.2,2.1-0.5,2.3-1.6c0,0,0,0,0-0.1c1.2-4.1,2.6-8.2,3.9-12.4
			c0.9,0.4,0.8,1.3,1,1.9c1.2,3.5,2.4,7.1,3.5,10.7c0.1,1,1,1.6,2,1.5c4.3-0.1,8.6,0,13,0c0.3,0.7-0.3,0.8-0.7,1.1
			c-3.2,2.4-6.4,4.8-9.6,7c-0.9,0.5-1.3,1.6-0.8,2.5c0,0,0,0,0,0.1c1.4,4.1,2.8,8.3,4.3,12.9c-3.9-2.8-7.4-5.2-10.9-7.8
			c-1.1-0.9-1.8-1-3,0C208.1,370,204.5,372.5,200.6,375.4z"/>
		<path class="st0" d="M321.6,303.6c1.5-4.7,2.9-8.9,4.3-13c0.5-0.8,0.2-1.9-0.7-2.4c0,0,0,0-0.1,0c-3.7-2.5-7.2-5.2-10.5-8.1h5
			c2.2-0.1,4.3-0.1,6.5,0c2.4,0.3,3.5-0.6,4.2-2.9c1-3.8,2.3-7.4,3.5-11.1c0.9,0.5,0.8,1.4,1,2.1c1.1,3.4,2.3,6.7,3.3,10.1
			c0.4,1.4,0.9,1.9,2.4,1.8c4.2-0.1,8.5,0,12.8,0c0.2,0.8-0.5,0.9-0.9,1.2c-3.1,2.3-6.3,4.7-9.5,6.9c-0.9,0.5-1.3,1.6-0.9,2.5
			c0,0,0,0,0,0c1.4,4.1,2.7,8.3,4.2,12.9c-3.9-2.8-7.4-5.2-10.8-7.8c-1.2-1-2-0.9-3.2,0C329,298.4,325.5,300.8,321.6,303.6z"/>
		<path class="st0" d="M140.4,74.5c1.4,4.2,2.8,7.8,3.8,11.6c0.6,2.3,1.6,3.1,4,2.9c3.9-0.2,7.9-0.1,11.8,0.3
			c-2.4,1.7-4.8,3.5-7.1,5.2c-1.5,1.1-3.7,2-4.3,3.4s0.9,3.6,1.4,5.5c0.9,2.8,1.8,5.7,2.9,9c-3.5-2.5-6.6-4.8-9.7-7
			c-2.6-1.9-2.6-1.9-5.4,0c-3.1,2.2-6.1,4.4-9.2,6.5c-4.6,3.2-0.1,0-0.4-0.1c1.3-4.1,2.6-8.2,4-12.2c0.6-1,0.2-2.3-0.8-2.8
			c0,0-0.1,0-0.1-0.1c-3.6-2.4-7-5-10.3-7.8c4.2,0,8.3-0.1,12.5,0c1.7,0.1,2.4-0.4,2.9-2.1C137.5,82.9,138.9,79,140.4,74.5z"/>
		<path class="st0" d="M352.5,196.8c1.5,4.7,2.9,8.9,4.1,13c0.1,1,1.1,1.7,2.1,1.6c0,0,0,0,0.1,0c4.4-0.1,8.8,0,13.4,0
			c-0.4,0.9-1.1,1.1-1.7,1.6c-2.9,2.1-5.7,4.2-8.7,6.2c-1.4,0.9-1.7,1.7-1.1,3.3c1.4,4,2.6,8,4,12.5c-3.8-2.7-7.2-5.1-10.5-7.7
			c-1.4-1.1-2.3-1.1-3.7,0c-3.3,2.5-6.7,4.9-10.5,7.6c1.5-4.6,2.7-8.7,4.2-12.7c0.6-1.1,0.2-2.4-0.9-3c0,0-0.1,0-0.1-0.1
			c-3.5-2.4-6.9-5-10.8-7.9c4.5,0,8.5-0.2,12.4,0.1c2.4,0.2,3.4-0.6,4-2.9C349.8,204.7,351.1,201.1,352.5,196.8z"/>
		<path class="st0" d="M70.9,197.2c1.6,4.7,3,8.7,4.2,12.8c0.4,1.4,1,1.7,2.3,1.6c4.3-0.1,8.6,0,13.6,0c-3,2.2-5.4,4-7.9,5.8
			c-4.5,3.3-4.5,3.3-2.8,8.5c1,2.9,1.9,5.9,3.1,9.4c-4-2.9-7.6-5.5-11.2-8.1c-0.7-0.7-1.7-0.7-2.4-0.1c0,0,0,0-0.1,0.1
			c-3.6,2.7-7.2,5.3-11.1,8.1c1.4-4.5,2.7-8.6,4.1-12.6c0.6-1.1,0.2-2.4-0.9-2.9c0,0-0.1,0-0.1-0.1c-3.5-2.4-7-5.1-10.2-7.9h10.7
			c3.9,0,3.9,0,5.2-3.7C68.5,204.6,69.6,201.2,70.9,197.2z"/>
		<path class="st0" d="M261.9,332.3c5,0,9.4,0,13.8,0c1,0.1,1.8-0.5,2-1.5c0,0,0,0,0,0c1.3-4.2,2.7-8.3,4.2-12.9c1.1,3.2,2,6.1,3,9
			c0.6,1.8,0.7,4.2,2,5.1s3.6,0.3,5.5,0.3c3,0,6,0,9.6,0c-1.5,1.1-2.5,1.9-3.6,2.7c-2.5,1.8-4.9,3.7-7.5,5.4c-1,0.5-1.4,1.6-0.9,2.6
			c0,0,0,0.1,0.1,0.1c1.4,4.2,2.8,8.4,4.3,13c-3.9-2.9-7.5-5.4-10.9-8c-0.8-0.8-2.1-0.9-2.9-0.1c0,0,0,0-0.1,0.1
			c-3.4,2.6-7,5-10.6,7.2c1-3,1.9-6,2.9-9c1.6-4.9,1.6-4.8-2.4-7.8C267.6,336.6,265,334.6,261.9,332.3z"/>
		<path class="st0" d="M141.5,318.3c1.5,4.6,3,8.8,4.3,13.1c0.1,0.9,0.9,1.5,1.8,1.4c0,0,0,0,0.1,0c4.4,0,8.8,0,13.3,0
			c-0.2,0.9-1,1.2-1.5,1.6c-3,2.2-5.9,4.4-9,6.5c-1,0.5-1.3,1.7-0.8,2.7c0,0,0,0,0,0c1.4,4.1,2.8,8.3,4.3,12.9
			c-3.9-2.9-7.5-5.4-11-8.1c-0.7-0.8-1.9-0.8-2.7-0.1c0,0-0.1,0.1-0.1,0.1c-3.4,2.6-6.9,5.1-10.7,7.8c0.3-2.4,1.2-4.3,1.8-6.3
			c0.6-2.3,1.3-4.5,2.2-6.7c0.4-0.7,0.2-1.7-0.6-2.1c-0.1,0-0.1-0.1-0.2-0.1c-3.4-2.4-6.8-4.9-10.2-7.3c-0.2-0.1-0.5-0.2-0.4-0.8
			c4.2,0,8.5-0.1,12.8,0c1.2,0.2,2.3-0.6,2.5-1.7c0,0,0-0.1,0-0.1C138.7,327,140.1,322.9,141.5,318.3z"/>
		<path class="st0" d="M70,279.9c4.1,0,8.2-0.1,12.3,0.1c1.9,0.1,2.6-0.6,3.1-2.3c1-3.6,2.3-7.1,3.4-10.7c0.1-0.4,0.2-0.8,0.7-1
			c1.3,4.1,2.7,8.3,4,12.4c0.1,1,1.1,1.7,2.1,1.6c0,0,0,0,0,0c4.4-0.1,8.7,0,13.8,0l-9.3,6.8c-3.1,2.3-3.1,2.2-1.9,5.9l3.6,10.8
			c-4-2.9-7.6-5.4-11.1-8c-0.7-0.7-1.9-0.8-2.6,0c0,0,0,0,0,0c-3.5,2.7-7.1,5.2-11.1,8.1c1.4-4.5,2.6-8.5,4.1-12.5
			c0.6-1.7,0.2-2.5-1.2-3.5c-3.4-2.3-6.7-4.9-10.1-7.3L70,279.9z"/>
		<path class="st0" d="M352.9,139.9c-3.8,2.8-7,5.3-10.4,7.5c-1.7,1.1-1.9,2.1-1.2,3.9c1.4,3.8,2.6,7.7,4,12.2
			c-3.8-2.8-7.2-5.1-10.5-7.7c-1.5-1.2-2.5-1.1-3.9,0c-3.3,2.6-6.7,4.9-10.4,7.7c1.5-4.6,2.8-8.8,4.2-12.9c0.5-1,0.1-2.3-0.9-2.8
			c0,0-0.1,0-0.1-0.1c-3.5-2.4-7-5-11-7.9c4.9,0,9.2-0.1,13.5,0c1.1,0.2,2.1-0.4,2.4-1.5c0-0.1,0-0.2,0-0.3
			c1.1-3.9,2.5-7.7,3.7-11.5c0.1-0.3,0.1-0.7,0.6-0.8c1.3,4,2.7,8,3.9,12c0.5,1.7,1.2,2.1,2.9,2
			C343.9,139.9,348.1,139.9,352.9,139.9z"/>
		<path class="st0" d="M262.8,89.2c4.8,0,9-0.1,13.1,0c1.6,0,2.4-0.3,2.9-2c1.1-4.1,2.5-8,4-12.5c1.2,3.7,2.4,7,3.5,10.4
			c1.3,4.1,1.3,4.1,5.7,4.1h10.9c-3.9,2.9-7.4,5.5-11,8c-1,0.5-1.4,1.7-0.8,2.7c0,0,0,0,0,0c1.4,4.1,2.7,8.3,4.2,12.9
			c-4-2.9-7.6-5.4-11.1-8.1c-0.7-0.7-1.9-0.8-2.6-0.1c0,0,0,0-0.1,0.1c-3.5,2.6-7,5.2-11,8.1c1.5-4.6,2.7-8.7,4.1-12.7
			c0.5-1.5,0.1-2.2-1-3C270.1,94.6,266.8,92.1,262.8,89.2z"/>
		<path class="st0" d="M231.7,70c-3.9,2.8-7.3,5.4-10.9,7.9c-1.1,0.5-1.5,1.7-1.1,2.8c0,0,0,0.1,0.1,0.1c1.4,4,2.7,8.1,4.1,12.7
			c-3.9-2.8-7.4-5.2-10.8-7.8c-0.9-0.9-2.3-0.9-3.1-0.1c0,0,0,0-0.1,0.1c-3.4,2.5-6.9,5-10.7,7.8c1.5-4.6,2.7-8.7,4.1-12.7
			c0.6-1,0.2-2.3-0.8-2.8c0,0-0.1,0-0.1-0.1c-3.5-2.5-6.9-5-10.9-7.9c4.9,0,9.2-0.1,13.6,0c1.1,0.2,2.1-0.5,2.3-1.5c0,0,0-0.1,0-0.1
			c1.2-4.1,2.6-8.2,4.1-12.8c0.9,2.8,1.7,5.1,2.5,7.4s0.9,5.5,2.5,6.6s4.7,0.3,7.1,0.4S228.6,70,231.7,70z"/>
		<path class="st0" d="M88.4,126.9c1.3,4.1,2.7,8.2,3.9,12.3c0.1,1.2,1.3,2.1,2.5,1.9c0.1,0,0.1,0,0.2,0c4.2-0.1,8.4,0,13.3,0
			c-3.7,2.7-6.9,5.1-10.2,7.3c-1.6,1.1-2.2,2-1.4,4c1.5,3.8,2.6,7.7,4,12.2c-3.8-2.8-7.3-5.2-10.6-7.8c-1.3-1-2.2-1.1-3.5-0.1
			c-3.3,2.6-6.7,5-10.3,7.6c0.1-0.6,0.2-1.1,0.3-1.7c1.2-3.8,2.4-7.5,3.7-11.3c0.4-0.8,0.1-1.8-0.6-2.2c0,0,0,0-0.1,0
			c-3.6-2.5-7.1-5.1-11.2-8.1h3.5c3.3,0,6.7-0.1,10,0c1,0.2,2-0.5,2.2-1.5c0,0,0-0.1,0-0.1c1.1-3.7,2.4-7.4,3.6-11.1
			C87.7,127.9,88,127.4,88.4,126.9z"/>
		<circle class="st1" cx="213.8" cy="213.8" r="210.3"/>
	</g>
</g>
</svg>
