<?xml version="1.0" encoding="utf-8"?>
<!-- Generator: Adobe Illustrator 20.0.0, SVG Export Plug-In . SVG Version: 6.00 Build 0)  -->
<svg version="1.1" id="Layer_1" xmlns="http://www.w3.org/2000/svg" xmlns:xlink="http://www.w3.org/1999/xlink" x="0px" y="0px"
	 viewBox="0 0 70.9 61.4" style="enable-background:new 0 0 70.9 61.4;" xml:space="preserve">
<style type="text/css">
	.st0{fill:#FFFFFF;}
	.st1{fill:#DC582A;}
	.st2{fill:none;}
</style>
<g>
	<polygon class="st0" points="53.2,0 70.9,30.7 53.2,61.4 17.7,61.4 0,30.7 17.7,0 	"/>
</g>
<path class="st1" d="M31.5,28.3v6h7.9c-1.4,3-4.6,5.5-8.3,5.5c-4.9,0-9-4.1-9-9.1c0-4.9,4-9,9-9c2.4,0,4.7,0.9,6.4,2.7l0.4,0.4
	l3.9-4.2l-0.4-0.3C38.6,17.5,35,16,31.1,16c-8.1,0-14.7,6.6-14.7,14.7S22.9,45.4,31,45.4c7,0,13.6-5.1,14.6-11.9v-5.3L31.5,28.3
	L31.5,28.3z"/>
<rect x="16.9" y="16.5" class="st2" width="37" height="28.4"/>
<path class="st1" d="M60.1,28.5h-4.2v-4.2h-3.6v4.2h-4.2v3.6h4.2v4.2h3.6v-4.2h4.2V28.5z"/>
</svg>
