<?xml version="1.0" encoding="utf-8"?>
<!-- Generator: Adobe Illustrator 20.0.0, SVG Export Plug-In . SVG Version: 6.00 Build 0)  -->
<svg version="1.1" id="Layer_1" xmlns="http://www.w3.org/2000/svg" xmlns:xlink="http://www.w3.org/1999/xlink" x="0px" y="0px"
	 viewBox="0 0 70.9 61.4" style="enable-background:new 0 0 70.9 61.4;" xml:space="preserve">
<style type="text/css">
	.st0{fill:#C4D600;}
	.st1{fill:#FFFFFF;}
</style>
<g>
	<polygon class="st0" points="53.2,0 70.9,30.7 53.2,61.4 17.7,61.4 0,30.7 17.7,0 	"/>
</g>
<g>
	<path class="st1" d="M50.3,32.2l0.1,10.9L44,43.2L43.9,33c0-2.6-1-4.3-3.3-4.3c-1.8,0-2.8,1.2-3.2,2.4c-0.2,0.4-0.2,1-0.2,1.5
		l0.1,10.7L31,43.4c0,0-0.1-17.3-0.2-19.1l6.3-0.1v2.7c0,0,0,0,0,0.1l0,0v-0.1c0.8-1.3,2.3-3.2,5.7-3.2C47,23.6,50.2,26.3,50.3,32.2
		L50.3,32.2z M24,15.1c-2.2,0-3.6,1.5-3.6,3.3s1.4,3.3,3.5,3.3l0,0c2.2,0,3.6-1.5,3.5-3.3C27.6,16.5,26.2,15.1,24,15.1L24,15.1z
		 M21.2,43.5l6.3-0.1l-0.2-19.1L21,24.4L21.2,43.5z"/>
</g>
</svg>
