<?xml version="1.0" encoding="utf-8"?>
<!-- Generator: Adobe Illustrator 20.0.0, SVG Export Plug-In . SVG Version: 6.00 Build 0)  -->
<svg version="1.1" id="Layer_1" xmlns="http://www.w3.org/2000/svg" xmlns:xlink="http://www.w3.org/1999/xlink" x="0px" y="0px"
	 viewBox="0 0 12.2 16.5" style="enable-background:new 0 0 12.2 16.5;" xml:space="preserve">
<style type="text/css">
	.st0{fill:#514689;}
</style>
<path class="st0" d="M0,0l12.2,8.2L0,16.5"/>
</svg>
