<?xml version="1.0" encoding="utf-8"?>
<!-- Generator: Adobe Illustrator 20.0.0, SVG Export Plug-In . SVG Version: 6.00 Build 0)  -->
<svg version="1.1" id="Layer_1" xmlns="http://www.w3.org/2000/svg" xmlns:xlink="http://www.w3.org/1999/xlink" x="0px" y="0px"
	 viewBox="0 0 70.8 73.2" style="enable-background:new 0 0 70.8 73.2;" xml:space="preserve">
<style type="text/css">
	.st0{fill:#FFFFFF;}
	.st1{fill:#060709;}
	.st2{fill:#CDD346;}
	.st3{fill:#0A0607;}
	.st4{fill:#020203;}
</style>
<rect x="0.7" y="17.5" class="st0" width="69" height="43.4"/>
<path class="st1" d="M35.3,61.7c-11.3,0-22.6,0-34,0c-0.2,0-0.4,0-0.5,0c-0.4,0-0.7-0.3-0.8-0.7c0-0.2,0-0.3,0-0.5
	c0-6.6,0-13.2,0-19.8c0-4.4,0-8.9,0-13.3c0-3.3,0-6.7,0-10c0-0.1,0-0.3,0-0.4c0.1-0.4,0.3-0.7,0.9-0.8c0.1,0,0.3,0,0.4,0
	c9.6,0,19.2,0,28.9,0c0.3,0,0.3,0,0.3-0.3c0-2.3,0-4.5,0-6.8c0-0.1,0-0.2,0-0.3c0-0.5,0.3-0.8,0.9-0.9c0.1,0,0.2,0,0.3,0
	c2.3,0,4.7,0,7,0c0.2,0,0.3,0,0.5,0c0.5,0.1,0.7,0.4,0.7,0.8c0,0.1,0,0.2,0,0.3c0,2.3,0,4.6,0,6.9c0,0.3,0,0.3,0.3,0.3
	c9.8,0,19.6,0,29.4,0c0.2,0,0.3,0,0.5,0c0.4,0.1,0.6,0.3,0.7,0.7c0,0.2,0,0.4,0,0.6c0,12.9,0,25.9,0,38.8c0,1.4,0,2.8,0,4.1
	c0,0.1,0,0.3,0,0.4c-0.1,0.4-0.4,0.7-0.8,0.8c-0.2,0-0.4,0-0.6,0C58,61.7,46.7,61.7,35.3,61.7z M35.3,60.2c11.1,0,22.2,0,33.2,0
	c0.1,0,0.1,0,0.2,0s0.2,0,0.2-0.1s0-0.2,0-0.3c0-13.8,0-27.6,0-41.5c0-0.3,0-0.3-0.3-0.3c-9.5,0-19,0-28.5,0c-0.1,0-0.1,0-0.2,0
	c-0.1,0-0.2,0.1-0.2,0.2v0.1c0,1.3,0,2.6,0,3.8c0,0.1,0,0.2,0,0.4c0,0.4-0.2,0.6-0.6,0.7c-0.1,0-0.2,0-0.4,0c-2.4,0-4.7,0-7.1,0
	c-0.1,0-0.3,0-0.4,0c-0.3-0.1-0.5-0.3-0.6-0.6c-0.1-0.2-0.1-0.4-0.1-0.5c0-1.3,0-2.6,0-3.8c0-0.3,0-0.3-0.3-0.3
	c-9.4,0-18.7,0-28.1,0C2,18,2,18,1.9,18s-0.2,0.1-0.2,0.2s0,0.1,0,0.2c0,13.8,0,27.7,0,41.5c0,0.3,0,0.3,0.3,0.3
	C13.1,60.2,24.2,60.2,35.3,60.2z M38.1,21.5c0-0.1,0-0.2,0-0.3c0-3.8,0-7.6,0-11.3V9.8c0-0.1,0-0.1-0.2-0.1c-1.8,0-3.7,0-5.5,0
	c-0.1,0-0.2,0-0.2,0.1v0.1c0,3.8,0,7.6,0,11.3v0.1c0,0.1,0,0.1,0.1,0.1h0.1c1.8,0,3.6,0,5.3,0C37.9,21.5,38,21.5,38.1,21.5z"/>
<path class="st0" d="M18.3,54.6c2.4,0,4.9,0,7.3,0c0.8,0,1.6,0,2.4,0c0.2,0,0.2,0,0.2-0.2v-0.1c0-1.4,0-2.8,0-4.3
	c0-0.7,0-1.5-0.2-2.2c-0.3-1.3-1-2.5-1.9-3.4c-1.4-1.4-3-2.2-5-2.3c-1,0-2,0-3.1,0c-0.7,0-1.3,0-2,0c-0.6,0-1.2,0-1.8,0.2
	c-2.3,0.6-4,1.9-5,4c-0.6,1.1-0.8,2.3-0.8,3.5c0,1.5,0,3.1,0,4.6c0,0.3,0,0.3,0.3,0.3C11.9,54.6,15.1,54.6,18.3,54.6z M12.2,33.3
	c0,3.4,2.7,6.2,6.1,6.2c3.3,0,6.1-2.7,6.1-6c0-3.6-2.9-6.2-6.1-6.2S12.2,30.1,12.2,33.3z M49.1,49c4.6,0,9.3,0,13.9,0
	c0.1,0,0.1,0,0.2,0s0.1,0,0.1-0.1c0-0.4,0-0.8,0-1.3c0-0.3,0-0.3-0.3-0.3c-9.3,0-18.5,0-27.8,0l0,0c-0.3,0-0.3,0-0.3,0.3
	c0,0.4,0,0.8,0,1.1s0,0.3,0.3,0.3C39.8,49,44.4,49,49.1,49z M48.9,41.5c-4.6,0-9.3,0-13.9,0c-0.1,0-0.1,0-0.2,0s-0.1,0-0.1,0.1
	c0,0.4,0,0.8,0,1.2c0,0.3,0,0.3,0.3,0.3c9.3,0,18.5,0,27.8,0h0.1c0.2,0,0.2,0,0.2-0.2c0-0.4,0-0.8,0-1.2c0-0.3,0-0.3-0.3-0.3
	C58.2,41.5,53.5,41.5,48.9,41.5z M49.1,54.4c4.6,0,9.3,0,13.9,0c0.1,0,0.1,0,0.2,0c0.2,0,0.2,0,0.2-0.2c0-0.4,0-0.8,0-1.2
	c0-0.3,0-0.3-0.3-0.3c-9.3,0-18.6,0-27.8,0h-0.1c-0.1,0-0.2,0-0.1,0.2c0,0.4,0,0.8,0,1.2c0,0.3,0,0.3,0.3,0.3
	C39.9,54.4,44.5,54.4,49.1,54.4z"/>
<path class="st0" d="M38.1,21.5c-0.1,0-0.2,0-0.3,0c-1.8,0-3.6,0-5.3,0h-0.1c-0.1,0-0.1,0-0.1-0.1v-0.1c0-3.8,0-7.6,0-11.3V9.9
	c0-0.1,0-0.1,0.2-0.1c1.8,0,3.7,0,5.5,0c0.1,0,0.2,0,0.2,0.1V10c0,3.8,0,7.6,0,11.3C38.1,21.3,38.1,21.4,38.1,21.5z"/>
<path class="st2" d="M18.3,54.6c-3.2,0-6.4,0-9.6,0c-0.3,0-0.3,0-0.3-0.3c0-1.5,0-3.1,0-4.6c0-1.2,0.2-2.4,0.8-3.5
	c1.1-2.1,2.8-3.4,5-4C14.8,42,15.4,42,16,42c0.7,0,1.3,0,2,0c1,0,2,0,3.1,0c2,0.1,3.6,0.9,5,2.3c0.9,1,1.6,2.1,1.9,3.4
	c0.2,0.7,0.2,1.5,0.2,2.2c0,1.4,0,2.8,0,4.3v0.1c0,0.2,0,0.2-0.2,0.2c-0.8,0-1.6,0-2.4,0C23.2,54.6,20.8,54.6,18.3,54.6z"/>
<path class="st2" d="M12.2,33.3c0-3.2,2.9-6,6.1-6c3.3,0,6.1,2.5,6.1,6.2c0,3.3-2.8,6-6.1,6C14.9,39.5,12.2,36.7,12.2,33.3z"/>
<path class="st3" d="M49.1,49c-4.6,0-9.3,0-13.9,0c-0.3,0-0.3,0-0.3-0.3c0-0.4,0-0.8,0-1.1s0-0.3,0.3-0.3l0,0c9.3,0,18.5,0,27.8,0
	c0.3,0,0.3,0,0.3,0.3c0,0.4,0,0.8,0,1.3c0,0.1,0,0.2-0.1,0.1c-0.1,0-0.1,0-0.2,0C58.4,49,53.7,49,49.1,49z"/>
<path class="st4" d="M48.9,41.5c4.6,0,9.3,0,13.9,0c0.3,0,0.3,0,0.3,0.3c0,0.4,0,0.8,0,1.2c0,0.2,0,0.2-0.2,0.2h-0.1
	c-9.3,0-18.5,0-27.8,0c-0.3,0-0.3,0-0.3-0.3c0-0.4,0-0.8,0-1.2c0-0.1,0-0.2,0.2-0.2c0.1,0,0.1,0,0.2,0
	C39.6,41.5,44.3,41.5,48.9,41.5z"/>
<path class="st4" d="M49.1,54.4c-4.6,0-9.3,0-13.9,0c-0.3,0-0.3,0-0.3-0.3c0-0.4,0-0.8,0-1.2c0-0.1,0-0.2,0.1-0.2h0.1
	c9.3,0,18.6,0,27.8,0c0.3,0,0.3,0,0.3,0.3c0,0.4,0,0.8,0,1.2c0,0.2,0,0.2-0.2,0.2c-0.1,0-0.1,0-0.2,0C58.4,54.4,53.8,54.4,49.1,54.4
	z"/>
</svg>
