<?xml version="1.0" encoding="utf-8"?>
<!-- Generator: Adobe Illustrator 20.0.0, SVG Export Plug-In . SVG Version: 6.00 Build 0)  -->
<svg version="1.1" id="Layer_1" xmlns="http://www.w3.org/2000/svg" xmlns:xlink="http://www.w3.org/1999/xlink" x="0px" y="0px"
	 viewBox="0 0 97.3 53.1" style="enable-background:new 0 0 97.3 53.1;" xml:space="preserve">
<style type="text/css">
	.st0{fill:#FFFFFF;}
	.st1{fill:#C4D600;stroke:#000000;stroke-width:2.06;stroke-miterlimit:10;}
</style>
<title>Regular_reviewsRGB</title>
<path d="M47.3,44.6c-3.7,0-7.3-0.6-10.8-1.6c-6.1-1.7-11.8-4.6-16.7-8.6c-2.8-2.2-5.2-4.9-7.2-7.8c-0.3-0.5-0.6-1.1-1-1.6
	c-0.2-0.2-0.3-0.4-0.2-0.7c0-0.1,0-0.1,0-0.2c1.8-3.2,4.2-6.1,6.9-8.5c3.7-3.3,8-6,12.6-7.9c3-1.3,6.2-2.2,9.4-2.8
	c2.3-0.4,4.7-0.7,7-0.7c1.6,0,3.2,0.1,4.7,0.3c3.1,0.4,6.2,1.1,9.2,2.2c4.6,1.6,8.8,3.9,12.7,6.8c2.8,2.1,5.3,4.5,7.3,7.3
	c0.8,1,1.5,2.1,2.1,3.3c0.1,0.1,0.1,0.2,0.2,0.3c0.1,0.3-0.1,0.5-0.2,0.7c-1,1.8-2.2,3.5-3.6,5.1c-2.7,3-5.8,5.6-9.2,7.7
	c-3.4,2.1-7.1,3.8-11,5c-2.3,0.7-4.6,1.2-7,1.5C50.9,44.5,49.1,44.6,47.3,44.6z M64.3,24.7c0-10.1-7.7-17.8-16.7-17.8
	c-9.2,0-16.7,7.8-16.9,17.3c-0.2,10.5,7.7,18.2,16.7,18.2S64.3,34.6,64.3,24.7L64.3,24.7z M59.9,40.3l0.2-0.1c2.7-0.9,5.3-2,7.8-3.4
	c3.8-2.1,7.1-4.8,10-8c1.2-1.3,2.2-2.8,3.1-4.3c-0.3-0.5-0.6-1-0.9-1.5c-2.2-3.2-5-6-8.2-8.2c-3.4-2.4-7.1-4.3-11-5.7l-1-0.3
	c4.4,4,7,9.8,6.9,15.8C66.9,30.5,64.4,36.3,59.9,40.3z M35.3,8.9h-0.2c-3.1,1-6.1,2.4-8.9,4.1c-3.6,2.1-6.7,4.8-9.4,7.9
	c-0.9,1.1-1.8,2.3-2.5,3.5c-0.1,0.1-0.1,0.2,0,0.3c0.5,0.8,1,1.6,1.6,2.4c1.9,2.4,4,4.6,6.5,6.4c3.9,2.9,8.2,5.2,12.8,6.7h0.2
	c-4.4-4-6.9-9.7-6.9-15.7C28.3,18.6,30.8,12.9,35.3,8.9z"/>
<path class="st0" d="M64.4,24.7c0,10-7.8,17.7-16.8,17.7s-16.9-7.8-16.7-18.2c0.2-9.5,7.7-17.3,16.9-17.3
	C56.7,6.9,64.3,14.6,64.4,24.7z M57.8,24.7c0-6-4.6-10.9-10.2-10.9s-10.2,4.9-10.3,10.7c0,6.1,4.5,10.9,10,11
	C53,35.7,57.8,30.8,57.8,24.7L57.8,24.7z"/>
<path class="st0" d="M59.9,40.3c4.5-4,7-9.7,6.9-15.8c0-6-2.5-11.7-6.9-15.8l1,0.3c3.9,1.4,7.6,3.3,11,5.7c3.2,2.2,6,5,8.2,8.2
	c0.3,0.5,0.6,1,0.9,1.5c-0.9,1.5-1.9,3-3.1,4.3c-2.9,3.2-6.2,5.9-10,8c-2.5,1.4-5.1,2.5-7.8,3.4L59.9,40.3z"/>
<path class="st0" d="M35.3,8.9c-4.5,4-7,9.7-6.9,15.7c-0.1,6,2.5,11.7,6.9,15.8h-0.2c-4.6-1.5-8.9-3.8-12.8-6.7
	c-2.4-1.8-4.6-4-6.5-6.4c-0.6-0.8-1.1-1.6-1.6-2.4c-0.1-0.1-0.1-0.2,0-0.3c0.7-1.3,1.6-2.4,2.5-3.5c2.7-3.2,5.9-5.9,9.4-8
	C28.9,11.4,31.9,10,35,9L35.3,8.9z"/>
<path class="st1" d="M57.8,24.7c0,6.1-4.8,11-10.5,10.8c-5.5-0.1-10-5-10-11c0-5.9,4.7-10.7,10.3-10.7S57.9,18.7,57.8,24.7z"/>
<path class="st0" d="M44.3,17.8c1.8-0.1,3.4,1.3,3.5,3.1s-1.3,3.4-3.1,3.5s-3.4-1.3-3.5-3.1c0-0.1,0-0.1,0-0.2
	C41.1,19.3,42.5,17.9,44.3,17.8z"/>
</svg>
