<?xml version="1.0" encoding="utf-8"?>
<!-- Generator: Adobe Illustrator 20.0.0, SVG Export Plug-In . SVG Version: 6.00 Build 0)  -->
<svg version="1.1" id="Layer_1" xmlns="http://www.w3.org/2000/svg" xmlns:xlink="http://www.w3.org/1999/xlink" x="0px" y="0px"
	 viewBox="0 0 86.3 127" style="enable-background:new 0 0 86.3 127;" xml:space="preserve">
<g>
	<path d="M45.4,62.8c0,5.2,0,10.5,0,15.7c1.1,0.3,2.3,0.5,3.4,0.8c3.6,1.1,6.6,3.1,8.5,6.5c0.6,1.1,0.9,2.4,1.4,3.6l-0.1,0.1
		c0.2,0,0.4,0,0.6,0c1.6,0,3.3,0,4.9,0c1.5,0,2.3,0.8,2.3,2.3c0,7,0,14.1,0,21.1c0,0.2,0,0.5,0,0.7c0.6,0,1.1,0,1.7,0
		c1.4,0,2.3,0.8,2.3,2.1c0,2.6,0,5.3,0,7.9c0,1.3-0.9,2.1-2.3,2.1c-16.6,0-33.3,0-49.9,0c-1.4,0-2.3-0.8-2.3-2.2c0-2.6,0-5.1,0-7.7
		c0-1.4,0.9-2.2,2.3-2.2c0.6,0,1.1,0,1.7,0c0-0.3,0-0.5,0-0.7c0-7,0-14.1,0-21c0-1.6,0.8-2.4,2.4-2.4c1.8,0,3.6,0,5.4,0
		c0.3-0.9,0.5-1.9,0.8-2.7c1.4-3.3,3.9-5.5,7.2-6.8c1.6-0.7,3.4-1.1,5.2-1.6c0-5,0-10.4,0-15.6c-1.5-0.3-3-0.5-4.5-0.9
		c-5.2-1.3-9.7-4-13.2-8c-2.5-2.8-4.4-6-5.5-9.8c-0.1-0.3-0.3-0.5-0.6-0.5C9.6,43.2,3.1,37.4,1.7,29.7c-0.2-1.1-0.3-2.3-0.3-3.4
		c0-7.6,0-15.4,0-23c0-1.6,1.1-2.4,2.5-2.4c26.2,0,52.6,0,78.8,0c1.5,0,2.5,1,2.5,2.4c0,7.9,0.1,15.9-0.1,23.8
		c-0.1,5.3-2.4,9.8-6.5,13.1c-2.7,2.1-5.8,3.3-9.3,3.6c-0.3,0-0.5,0.2-0.5,0.5c-1.1,3.6-3,6.9-5.5,9.8c-4.1,4.5-9.2,7.4-15.2,8.4
		C47.1,62.5,46.3,62.6,45.4,62.8z M20.8,5c0,0.2,0,0.4,0,0.6c0,10.1,0,20.2,0,30.3c0,2,0.2,3.9,0.7,5.8
		c2.8,11.1,13.4,18.2,24.7,16.7c4.7-0.6,9-2.6,12.4-5.8c4.7-4.5,7.1-10.1,7.1-16.6c0-10.2,0-20.2,0-30.4c0-0.2,0-0.4,0-0.6
		C50.8,5,35.9,5,20.8,5z M5.5,5c0,0.2,0,0.3,0,0.5c0,7,0,14,0,21c0,0.7,0,1.5,0.2,2.2c0.9,4.6,3.4,7.9,7.7,9.9c0.9,0.4,1.9,0.6,3,1
		c0-11.6,0-23,0-34.5C12.9,5,9.2,5,5.5,5z M70,39.3c0.2,0,0.2,0,0.3,0c5.7-0.9,10.6-6.4,10.6-12.2c0.1-7.3,0-14.6,0-21.9
		c0-0.1,0-0.2,0-0.3C77.2,5,73.6,5,70,5C70,16.4,70,27.9,70,39.3z M24.2,113.8c12.7,0,25.3,0,38,0c0-6.6,0-13.3,0-19.9
		c-12.7,0-25.3,0-38,0C24.2,100.5,24.2,107.1,24.2,113.8z M66.3,118.1c-15.4,0-30.7,0-46.1,0c0,1.3,0,2.5,0,3.7
		c15.4,0,30.7,0,46.1,0C66.3,120.5,66.3,119.3,66.3,118.1z M32.3,89.6c7.3,0,14.7,0,22.1,0c0-0.2,0-0.3-0.1-0.4
		c0-0.2-0.1-0.3-0.2-0.5c-0.8-2.2-2.4-3.6-4.4-4.6c-2.2-1.1-4.6-1.6-7.1-1.4c-2.7,0.2-5.2,0.9-7.4,2.6
		C33.7,86.3,32.7,87.7,32.3,89.6z"/>
	<path d="M33.3,39c0.2-1.2,0.4-2.6,0.7-4c0.1-0.8,0.3-1.5,0.4-2.3c0-0.3-0.1-0.6-0.3-0.8c-1.4-1.4-2.9-2.9-4.4-4.3
		c-0.8-0.8-1.1-1.8-0.7-2.9c0.3-1.1,1.1-1.7,2.3-1.9c2-0.3,4.1-0.6,6.1-0.9c0.3,0,0.5-0.2,0.6-0.5c0.9-1.8,1.8-3.7,2.7-5.5
		c0.7-1.4,2.1-1.9,3.5-1.4c0.8,0.3,1.3,0.8,1.6,1.6c0.9,1.8,1.7,3.5,2.6,5.3c0.2,0.3,0.3,0.5,0.7,0.5c2,0.3,4,0.6,6,0.9
		c1.1,0.2,2,0.8,2.3,1.9c0.4,1.1,0.1,2.1-0.8,2.9c-1.4,1.4-2.8,2.8-4.3,4.2c-0.3,0.3-0.4,0.6-0.3,1c0.3,1.9,0.7,3.8,1,5.7
		c0.2,1.2,0,2.3-1,3c-1,0.7-2.1,0.8-3.2,0.1c-0.4-0.2-0.8-0.4-1.2-0.6c-1.4-0.7-2.7-1.4-4.1-2.2c-0.3-0.2-0.5-0.2-0.8,0
		c-1.8,1-3.6,1.9-5.4,2.9C35.5,42.8,33.3,41.5,33.3,39z M48.7,36.8c0-0.3-0.1-0.5-0.1-0.7c-0.2-1.3-0.4-2.6-0.7-4
		c-0.1-0.7,0-1.4,0.5-2c0.2-0.3,0.5-0.5,0.7-0.8c0.9-1,1.8-1.9,2.6-2.8c-1.2-0.2-2.6-0.4-3.9-0.6c-1.2-0.2-2-0.7-2.6-1.8
		c-0.5-1.2-1.1-2.3-1.7-3.5c-0.1-0.1-0.2-0.2-0.3-0.4c-0.7,1.3-1.3,2.6-1.9,3.9c-0.2,0.4-0.6,1-1,1.2c-0.7,0.4-1.5,0.5-2.3,0.7
		c-1.1,0.2-2.2,0.3-3.1,0.5c0.9,1,1.9,2.1,2.9,3.1c0.7,0.7,1,1.5,0.9,2.6c-0.1,0.9-0.3,1.7-0.4,2.6c-0.1,0.6-0.2,1.2-0.3,2
		c1.3-0.7,2.5-1.3,3.6-1.9c1.2-0.7,2.3-0.7,3.4,0C46.1,35.5,47.3,36.1,48.7,36.8z"/>
	<path d="M43.2,111.8c-4.5,0-9.1,0-13.5,0c-1.4,0-2.3-0.8-2.3-2.3c0-3.7,0-7.5,0-11.3c0-1.4,0.9-2.3,2.3-2.3c9.1,0,18.1,0,27.2,0
		c1.4,0,2.2,0.9,2.3,2.2c0,3.8,0,7.5,0,11.4c0,1.4-0.9,2.2-2.3,2.2C52.3,111.8,47.8,111.8,43.2,111.8z M54.9,107.5
		c0-2.5,0-4.9,0-7.4c-7.7,0-15.6,0-23.3,0c0,2.5,0,4.9,0,7.4C39.4,107.5,47.1,107.5,54.9,107.5z"/>
</g>
</svg>
