<?xml version="1.0" encoding="utf-8"?>
<!-- Generator: Adobe Illustrator 20.0.0, SVG Export Plug-In . SVG Version: 6.00 Build 0)  -->
<svg version="1.1" id="Layer_1" xmlns="http://www.w3.org/2000/svg" xmlns:xlink="http://www.w3.org/1999/xlink" x="0px" y="0px"
	 viewBox="0 0 70.9 61.4" style="enable-background:new 0 0 70.9 61.4;" xml:space="preserve">
<style type="text/css">
	.st0{fill:#C4D600;}
	.st1{fill:#FFFFFF;}
</style>
<g>
	<polygon class="st0" points="53.2,0 70.9,30.7 53.2,61.4 17.7,61.4 0,30.7 17.7,0 	"/>
</g>
<g>
	<path class="st1" d="M49.8,21.8c-1.1,0.5-2.2,0.8-3.4,0.9c1.2-0.7,2.2-1.9,2.6-3.3c-1.1,0.7-2.4,1.2-3.8,1.4
		c-1-1.1-2.5-1.8-4.2-1.8c-3.3,0-5.9,2.6-5.9,5.9c0,0.5,0.1,0.9,0.2,1.3C30.4,26,26,23.6,23.1,20c-0.5,0.9-0.8,1.9-0.8,3
		c0,2,1,3.9,2.6,4.9c-1,0-1.9-0.3-2.7-0.7v0.1c0,2.9,2,5.2,4.7,5.8c-0.5,0.1-1,0.2-1.6,0.2c-0.4,0-0.7,0-1.1-0.1
		c0.8,2.3,2.9,4,5.5,4.1c-2,1.6-4.6,2.5-7.3,2.5c-0.5,0-0.9,0-1.4-0.1c2.6,1.7,5.7,2.6,9,2.6c10.9,0,16.8-9,16.8-16.8v-0.8
		C48,24,49,23,49.8,21.8L49.8,21.8z"/>
</g>
</svg>
