<?xml version="1.0" encoding="utf-8"?>
<!-- Generator: Adobe Illustrator 20.0.0, SVG Export Plug-In . SVG Version: 6.00 Build 0)  -->
<svg version="1.1" id="Layer_1" xmlns="http://www.w3.org/2000/svg" xmlns:xlink="http://www.w3.org/1999/xlink" x="0px" y="0px"
	 viewBox="0 0 267.7 159.3" style="enable-background:new 0 0 267.7 159.3;" xml:space="preserve">
<style type="text/css">
	.st0{fill:#FFFFFF;}
</style>
<g>
	<path class="st0" d="M61.4,92.4H1.2c-1,0-1.3-0.2-1.3-1.2C0,83.5,0,75.7-0.1,68c0-1.1,0.3-1.2,1.3-1.2h120.1c1.1,0,1.5-0.2,1.5-1.4
		c0-21.4,0-42.8-0.1-64.2c0-1,0.3-1.3,1.3-1.3h20.3c0.9,0,1.1,0.2,1.1,1.1v64.4c0,1.1,0.2,1.3,1.3,1.3h119.7c1.1,0,1.4,0.2,1.4,1.4
		c-0.1,7.7-0.1,15.4,0,23.1c0,1-0.3,1.3-1.3,1.3H146.8c-1.1,0-1.4,0.3-1.4,1.4c0,21.3,0.1,42.7,0.1,64.1c0,1-0.2,1.3-1.2,1.3
		c-6.7-0.1-13.4-0.1-20.2,0c-1,0-1.3-0.2-1.3-1.3c0-21.4,0-42.7,0.1-64.1c0-1.2-0.3-1.4-1.4-1.4C101.4,92.4,81.4,92.4,61.4,92.4
		L61.4,92.4z"/>
	<path class="st0" d="M152.8,106.1l85.7,52.8v0.2h-84.3c-1.1,0-1.3-0.3-1.3-1.4v-50.2C152.8,107.1,152.8,106.7,152.8,106.1
		L152.8,106.1z M29.9,158.9l85.5-52.7c0.2,0.3,0.2,0.6,0.2,0.9V158c0,0.8-0.2,1-1,1H30.1L29.9,158.9z M30.1-0.1h84.3
		c1,0,1.3,0.2,1.3,1.2v51.7L30.1,0.2L30.1-0.1L30.1-0.1z M237.7,0.2l-84.9,52.3v-1.1V1.2c0-0.9,0.2-1.2,1.1-1.2h83.7L237.7,0.2
		L237.7,0.2z M0,15.6l74.9,44.1c-0.2,0.4-0.6,0.2-0.8,0.2h-73c-0.8,0-1.1-0.1-1.1-1V16.1L0,15.6L0,15.6z M0,143v-1.3V99.9
		c0-0.9,0.1-1.3,1.2-1.3H75l0.1,0.2C75.1,98.8,0,143,0,143z M267.8,16v42.7c0,1-0.2,1.3-1.3,1.3c-24-0.1-48-0.1-72-0.1
		c-0.3,0-0.7-0.1-1-0.2L267.8,16L267.8,16z M193.6,98.7h73c1,0,1.2,0.3,1.2,1.3v42.6l-74.3-43.8L193.6,98.7z M0.2,158.9L17.9,148
		c26.3-16.2,52.5-32.3,78.8-48.5c0.9-0.6,2-0.9,3.1-0.9h15.8c-0.7,0.5-1.2,0.8-1.6,1.1l-95.5,59c-0.3,0.3-0.7,0.4-1.1,0.4H0.5
		L0.2,158.9z M267.6,0l-29,17.9l-67.2,41.4c-0.6,0.4-1.4,0.6-2.2,0.6h-15.9c0-0.4,0.4-0.5,0.6-0.6l95.5-58.9
		c0.4-0.3,0.8-0.4,1.2-0.4H267.6L267.6,0z M0-0.1l101.2,59.8v0.2H87c-0.6,0-1.1-0.1-1.6-0.4L0.7,9.8C0.3,9.6-0.1,9.4-0.1,8.9
		C0,5.9,0,3,0-0.1L0-0.1z M167,98.7h14.8c0.5,0,0.9,0.2,1.3,0.4l54.5,32.1c9.7,5.7,19.3,11.3,29,17c0.7,0.3,1.2,1.1,1.1,1.9
		c-0.1,2.4-0.1,4.8,0,7.2c0,0.9-0.2,1-0.9,0.5c-7.8-4.7-15.6-9.3-23.5-13.9l-75.6-44.8L167,98.7z"/>
</g>
</svg>
